cunningham,lankester
cunningham,lankester
cunningham,lankester
lankester,orton
lankester,orton
lankester,orton
lankester,orton
lankester,poulton
lankester,poulton
lankester,poulton
lankester,poulton
lankester,poulton
lankester,poulton
lankester,poulton
lankester,poulton
lankester,poulton
lankester,poulton
lankester,poulton
lankester,poulton
lankester,poulton
lankester,poulton
lankester,poulton
lankester,poulton
lankester,poulton
lankester,poulton
lankester,poulton
lankester,poulton
lankester,poulton
lankester,poulton
lankester,poulton
lankester,poulton
lankester,poulton
lankester,poulton
lankester,poulton
lankester,poulton
lankester,poulton
lankester,poulton
lankester,poulton
lankester,poulton
lankester,poulton
lankester,poulton
lankester,poulton
lankester,poulton
boycott,lankester
boycott,lankester
boycott,lankester
lankester,thiselton
lankester,thiselton
lankester,thiselton
lankester,thiselton
gray,lankester
gray,lankester
ewart,lankester
lankester,punnett
lankester,thomson
lankester,thomson
lankester,thomson
lankester,thomson
lankester,thomson
lankester,thomson
lankester,thomson
lankester,watson
lankester,watson
lankester,pantin
harrison,lankester
lankester,pocock
lankester,pocock
lankester,pocock
lankester,pocock
bateson,huxley
bateson,huxley
bateson,huxley
bateson,huxley
bateson,huxley
bateson,huxley
bateson,huxley
bateson,huxley
bateson,huxley
bateson,huxley
bateson,huxley
bateson,huxley
bateson,huxley
bateson,huxley
bateson,huxley
bateson,huxley
bateson,huxley
bateson,huxley
bateson,huxley
bateson,huxley
bateson,huxley
bateson,huxley
bateson,huxley
bateson,huxley
bateson,huxley
bateson,huxley
bateson,huxley
bateson,huxley
bateson,huxley
bateson,huxley
bateson,huxley
bateson,huxley
bateson,huxley
harmer,huxley
huxley,poulton
huxley,poulton
huxley,poulton
huxley,poulton
huxley,poulton
huxley,poulton
huxley,poulton
huxley,poulton
huxley,poulton
huxley,poulton
huxley,poulton
huxley,poulton
huxley,poulton
huxley,poulton
huxley,poulton
huxley,poulton
huxley,poulton
huxley,poulton
huxley,poulton
huxley,poulton
huxley,poulton
huxley,lankester
huxley,lankester
huxley,lankester
huxley,lankester
huxley,lankester
huxley,lankester
huxley,lankester
huxley,lankester
huxley,lankester
huxley,lankester
huxley,lankester
huxley,lankester
huxley,lankester
huxley,lankester
huxley,lankester
huxley,lankester
huxley,lankester
huxley,lankester
huxley,lankester
huxley,lankester
huxley,lankester
huxley,lankester
huxley,lankester
crew,huxley
crew,huxley
crew,huxley
crew,huxley
crew,huxley
emerson,huxley
emerson,huxley
emerson,huxley
huxley,thiselton
huxley,thiselton
huxley,thiselton
huxley,thiselton
huxley,thiselton
huxley,thiselton
huxley,thiselton
huxley,thiselton
huxley,thiselton
huxley,thiselton
huxley,thiselton
huxley,thiselton
huxley,thiselton
huxley,thiselton
huxley,thiselton
huxley,thiselton
huxley,thiselton
huxley,thiselton
huxley,thiselton
huxley,thiselton
huxley,thiselton
huxley,thiselton
huxley,thiselton
huxley,thiselton
huxley,thiselton
huxley,thiselton
huxley,orton
huxley,orton
huxley,orton
huxley,orton
huxley,orton
huxley,orton
huxley,watson
huxley,watson
huxley,watson
huxley,watson
huxley,watson
huxley,watson
huxley,watson
huxley,watson
huxley,watson
huxley,watson
huxley,watson
huxley,watson
huxley,watson
huxley,watson
huxley,watson
huxley,watson
huxley,watson
huxley,watson
huxley,watson
gray,huxley
cunningham,huxley
cunningham,huxley
cunningham,huxley
cunningham,huxley
cunningham,huxley
cunningham,huxley
cunningham,huxley
cunningham,huxley
cunningham,huxley
cunningham,huxley
cunningham,huxley
cunningham,huxley
cunningham,huxley
huxley,pantin
huxley,pantin
huxley,pantin
huxley,pantin
harrison,huxley
huxley,williams
huxley,williams
huxley,lotsy
huxley,lotsy
huxley,yule
huxley,thomson
huxley,thomson
huxley,thomson
huxley,thomson
huxley,thomson
huxley,thomson
huxley,thomson
huxley,thomson
huxley,thomson
huxley,thomson
huxley,thomson
huxley,thomson
huxley,thomson
huxley,thomson
huxley,thomson
huxley,thomson
huxley,thomson
huxley,thomson
huxley,thomson
huxley,thomson
huxley,thomson
huxley,thomson
cockerell,huxley
cockerell,huxley
cockerell,huxley
cockerell,huxley
cockerell,huxley
cockerell,huxley
cockerell,huxley
cockerell,huxley
cockerell,huxley
fisher,huxley
fisher,huxley
huxley,punnett
huxley,punnett
huxley,punnett
cunningham,romanes
crew,romanes
harrison,romanes
romanes,thompson
romanes,thomson
bateson,thomson
orton,thomson
thomson,williams
thomson,williams
cunningham,thomson
cunningham,thomson
cunningham,thomson
cunningham,thomson
cunningham,thomson
cunningham,thomson
boycott,thomson
boycott,thomson
boycott,thomson
cockerell,thomson
cockerell,thomson
cockerell,thomson
cockerell,thomson
cockerell,thomson
cockerell,thomson
cockerell,thomson
ewart,thomson
ewart,thomson
poulton,thomson
poulton,thomson
poulton,thomson
punnett,thomson
punnett,thomson
punnett,thomson
pearson,thomson
gray,thomson
gray,thomson
gray,thomson
gray,thomson
gray,thomson
gray,thomson
fisher,thomson
fisher,thomson
fisher,thomson
johannsen,thomson
distant,harmer
distant,harmer
distant,harmer
distant,harmer
distant,harmer
distant,guppy
distant,guppy
distant,guppy
distant,guppy
distant,guppy
distant,orton
distant,orton
distant,orton
cockerell,distant
cockerell,distant
cockerell,distant
cockerell,distant
belling,distant
distant,willis
distant,yule
crew,distant
crew,distant
crew,distant
crew,distant
bateson,distant
bateson,distant
bateson,distant
distant,watson
cunningham,distant
cunningham,distant
distant,lloyd
distant,stelfox
distant,pantin
distant,pantin
distant,thiselton
distant,punnett
distant,forbes
distant,forbes
cockerell,spencer
cockerell,spencer
cockerell,spencer
cockerell,spencer
cockerell,spencer
cockerell,spencer
cockerell,spencer
cockerell,spencer
lankester,spencer
lankester,spencer
lankester,spencer
lankester,spencer
lankester,spencer
lankester,spencer
lankester,spencer
cunningham,spencer
poulton,spencer
bateson,spencer
bateson,spencer
orton,spencer
orton,spencer
orton,spencer
bateson,orton
bateson,orton
bateson,orton
bateson,orton
bateson,cunningham
bateson,cunningham
bateson,cunningham
bateson,cunningham
bateson,cunningham
bateson,cunningham
bateson,cunningham
bateson,cunningham
bateson,cunningham
bateson,cunningham
bateson,cunningham
bateson,cunningham
bateson,cunningham
bateson,cunningham
bateson,cunningham
bateson,cunningham
bateson,cunningham
bateson,cunningham
bateson,cunningham
bateson,cunningham
bateson,cunningham
bateson,cunningham
bateson,cunningham
bateson,cunningham
bateson,cunningham
bateson,cunningham
bateson,crew
bateson,crew
bateson,williams
bateson,lotsy
bateson,lotsy
bateson,lotsy
bateson,lotsy
bateson,lotsy
bateson,lotsy
bateson,harrison
bateson,harrison
bateson,harrison
bateson,thompson
bateson,thompson
bateson,harmer
bateson,harmer
bateson,punnett
bateson,punnett
bateson,punnett
bateson,forbes
bateson,forbes
bateson,kammerer
bateson,kammerer
bateson,kammerer
bateson,kammerer
bateson,kammerer
bateson,kammerer
bateson,kammerer
bateson,kammerer
bateson,kammerer
bateson,kammerer
bateson,kammerer
bateson,kammerer
bateson,kammerer
bateson,kammerer
bateson,kammerer
bateson,kammerer
bateson,kammerer
bateson,kammerer
bateson,kammerer
bateson,kammerer
bateson,kammerer
bateson,kammerer
bateson,kammerer
bateson,kammerer
bateson,kammerer
bateson,kammerer
bateson,kammerer
bateson,kammerer
bateson,kammerer
bateson,kammerer
bateson,kammerer
bateson,kammerer
bateson,kammerer
bateson,kammerer
bateson,kammerer
bateson,kammerer
bateson,kammerer
bateson,kammerer
bateson,kammerer
bateson,kammerer
bateson,thiselton
orton,pearson
orton,pearson
orton,pearson
orton,pearson
bateson,pearson
pearson,yule
pearson,yule
pearson,yule
pearson,yule
pearson,yule
pearson,yule
fisher,pearson
fisher,pearson
fisher,pearson
fisher,pearson
fisher,pearson
fisher,pearson
fisher,pearson
fisher,pearson
fisher,pearson
fisher,pearson
fisher,pearson
fisher,pearson
fisher,pearson
fisher,pearson
fisher,pearson
pearson,williams
pearson,williams
pearson,williams
pearson,williams
cockerell,pearson
cunningham,pearson
cunningham,pearson
pearson,watson
pearson,watson
pearson,watson
boycott,pearson
boycott,pearson
gray,harmer
gray,harmer
cockerell,gray
cockerell,gray
cockerell,gray
cockerell,gray
gray,orton
gray,orton
gray,pearson
gray,poulton
fisher,gray
fisher,gray
gray,pantin
gray,pantin
bateson,gray
gray,punnett
cunningham,harrison
cunningham,harrison
cunningham,harrison
cunningham,harrison
cunningham,harrison
cunningham,orton
cunningham,kammerer
cunningham,kammerer
cunningham,kammerer
cunningham,kammerer
cunningham,kammerer
cunningham,kammerer
cunningham,kammerer
cunningham,kammerer
cunningham,kammerer
cunningham,kammerer
cunningham,kammerer
cunningham,kammerer
cunningham,kammerer
cunningham,kammerer
cunningham,kammerer
cunningham,kammerer
cunningham,kammerer
cunningham,kammerer
cunningham,kammerer
cunningham,kammerer
crew,cunningham
crew,cunningham
cockerell,cunningham
cockerell,cunningham
cunningham,yule
cunningham,yule
cunningham,thompson
cunningham,thompson
cockerell,johannsen
lotsy,weismann
lotsy,weismann
crew,weismann
crew,weismann
cunningham,weismann
cunningham,weismann
bateson,weismann
forbes,poulton
forbes,poulton
forbes,poulton
forbes,orton
forbes,lankester
forbes,lankester
forbes,lankester
forbes,lankester
orton,thomas
orton,thomas
orton,thomas
orton,thomas
pearson,thomas
pearson,thomas
pearson,thomas
pearson,thomas
harmer,thomas
harmer,thomas
stelfox,thomas
thomas,williams
thomas,williams
thomas,williams
crew,thomas
poulton,thomas
poulton,thomas
thiselton,thomas
cockerell,thomas
punnett,thomas
punnett,thomas
cunningham,thomas
thomas,watson
thomas,watson
thomas,watson
thomas,watson
lankester,thomas
lankester,thomas
ewart,thomas
fisher,thomas
thomas,thomson
thomas,thomson
harrison,thomas
harrison,thomas
harrison,thomas
orton,williams
orton,williams
orton,williams
orton,williams
orton,williams
orton,williams
boycott,orton
boycott,orton
boycott,orton
cockerell,orton
lloyd,orton
lloyd,orton
orton,stelfox
orton,stelfox
orton,poulton
fisher,orton
fisher,orton
fisher,orton
fisher,williams
fisher,williams
fisher,williams
fisher,williams
fisher,williams
fisher,williams
fisher,williams
fisher,williams
fisher,williams
fisher,williams
fisher,williams
fisher,williams
fisher,punnett
fisher,punnett
fisher,punnett
fisher,punnett
fisher,punnett
fisher,punnett
fisher,punnett
fisher,punnett
fisher,punnett
fisher,punnett
fisher,punnett
fisher,punnett
fisher,punnett
fisher,punnett
fisher,punnett
fisher,punnett
fisher,punnett
fisher,punnett
fisher,punnett
fisher,punnett
fisher,punnett
fisher,punnett
fisher,punnett
cockerell,fisher
cockerell,fisher
cockerell,fisher
cockerell,fisher
cockerell,fisher
cockerell,fisher
crew,fisher
crew,fisher
crew,fisher
fisher,forbes
boycott,fisher
boycott,fisher
harrison,morgan
cunningham,morgan
cunningham,morgan
cunningham,morgan
cunningham,morgan
cunningham,morgan
cunningham,morgan
cunningham,morgan
bateson,morgan
bateson,morgan
bateson,morgan
bateson,morgan
bateson,morgan
bateson,morgan
bateson,morgan
bateson,morgan
crew,morgan
crew,morgan
crew,morgan
crew,morgan
fisher,morgan
morgan,poulton
morgan,pantin
morgan,pantin
morgan,pantin
morgan,punnett
morgan,punnett
morgan,punnett
morgan,punnett
morgan,punnett
morgan,punnett
morgan,punnett
morgan,punnett
morgan,punnett
morgan,punnett
morgan,punnett
morgan,watson
lankester,morgan
lankester,morgan
doncaster,morgan
doncaster,morgan
doncaster,morgan
doncaster,morgan
doncaster,morgan
morgan,thomson
morgan,orton
weldon,yule
weldon,yule
cunningham,weldon
cunningham,weldon
cunningham,weldon
cunningham,weldon
cunningham,weldon
bateson,poulton
ewart,poulton
ewart,poulton
poulton,punnett
poulton,punnett
cunningham,poulton
cunningham,poulton
harmer,poulton
bateson,wilson
bateson,wilson
bateson,wilson
lankester,wilson
lankester,wilson
cunningham,wilson
boycott,wilson
boycott,wilson
boycott,wilson
boycott,wilson
cockerell,wilson
cockerell,wilson
cockerell,wilson
cockerell,wilson
orton,wilson
orton,wilson
orton,wilson
williams,wilson
williams,wilson
forbes,wilson
hurst,wilson
pantin,wilson
pantin,wilson
fisher,wilson
fisher,wilson
fisher,wilson
fisher,wilson
fisher,wilson
pocock,wilson
pearson,wilson
pearson,wilson
thomson,wilson
boulenger,sclater
boulenger,sclater
boulenger,sclater
boulenger,sclater
guppy,henslow
crew,williams
crew,williams
crew,williams
cockerell,williams
cockerell,williams
poulton,williams
poulton,williams
pantin,williams
pantin,williams
pantin,williams
pantin,williams
pantin,williams
pantin,williams
pantin,williams
pantin,williams
pantin,williams
pantin,williams
pantin,williams
harrison,williams
harrison,williams
thompson,williams
thompson,williams
thompson,williams
thompson,williams
belling,williams
lankester,williams
bateson,gregory
bateson,gregory
bateson,gregory
bateson,gregory
bateson,gregory
bateson,gregory
crew,gregory
crew,gregory
gregory,huxley
emerson,gregory
cunningham,gregory
cockerell,gregory
cockerell,gregory
cockerell,gregory
gregory,orton
gregory,orton
gregory,orton
gregory,watson
gregory,lankester
gregory,lankester
gregory,lankester
gregory,lankester
gregory,lankester
gregory,lankester
gregory,lankester
gregory,lankester
boulenger,gregory
boulenger,gregory
gregory,thomson
gregory,thomson
gregory,thomson
gregory,thomson
gregory,thomson
gregory,thomson
gregory,thomson
gregory,pocock
gregory,pocock
gregory,pocock
fisher,thompson
fisher,thompson
fisher,thompson
stelfox,thompson
lankester,thompson
lankester,thompson
cockerell,thompson
cockerell,thompson
cockerell,thompson
orton,thompson
orton,thompson
orton,thompson
pantin,thompson
crew,thompson
crew,thompson
crew,thompson
harrison,thompson
harrison,thompson
frankland,thompson
thompson,willis
thompson,willis
thompson,willis
thompson,willis
thompson,willis
thompson,willis
harmer,thompson
thompson,thomson
thompson,thomson
thompson,thomson
thompson,thomson
orton,vries
lotsy,vries
cockerell,vries
cockerell,vries
bateson,vries
bateson,vries
bateson,vries
bateson,vries
bateson,vries
pantin,willis
pantin,willis
pantin,willis
pantin,willis
pantin,willis
pantin,willis
pantin,willis
pantin,willis
pantin,willis
pantin,willis
pantin,willis
pantin,willis
pantin,willis
willis,yule
willis,yule
willis,yule
willis,yule
willis,yule
willis,yule
willis,yule
willis,yule
willis,yule
willis,yule
willis,yule
willis,yule
cunningham,willis
bateson,willis
bateson,willis
bateson,willis
bateson,willis
bateson,willis
bateson,willis
bateson,willis
bateson,willis
bateson,willis
bateson,willis
bateson,willis
bateson,willis
bateson,willis
bateson,willis
bateson,willis
bateson,willis
bateson,willis
cockerell,willis
cockerell,willis
cockerell,willis
cockerell,willis
guppy,willis
guppy,willis
bateson,pearl
orton,pearl
crew,pearl
cockerell,pearl
pearl,williams
fisher,pearl
boycott,pearl
boycott,pearl
boycott,pearl
harmer,pearl
harmer,pearl
harmer,pearl
bateson,watson
bateson,watson
bateson,watson
belling,watson
belling,watson
cockerell,watson
cockerell,watson
cockerell,watson
cockerell,watson
cockerell,watson
thiselton,watson
cunningham,watson
crew,watson
crew,watson
crew,watson
poulton,watson
frankland,watson
frankland,watson
stelfox,watson
fisher,watson
lloyd,yule
cockerell,lloyd
lloyd,poulton
lloyd,stelfox
lloyd,stelfox
lloyd,stelfox
lloyd,stelfox
lloyd,stelfox
lloyd,stelfox
lloyd,williams
cunningham,lloyd
lloyd,pantin
lloyd,pantin
lloyd,pantin
lloyd,pantin
lloyd,pantin
lloyd,pantin
lloyd,pantin
lloyd,pantin
lloyd,pantin
lloyd,pantin
lloyd,pantin
lloyd,watson
crew,lloyd
harrison,lloyd
lloyd,thompson
lloyd,thompson
lloyd,willis
lloyd,willis
lloyd,thomson
bateson,guppy
cockerell,kammerer
crew,kammerer
crew,kammerer
crew,kammerer
harrison,kammerer
harrison,kammerer
kammerer,thompson
kammerer,thompson
kammerer,lankester
kammerer,lankester
kammerer,lankester
kammerer,lankester
cope,fisher
cope,lankester
cope,orton
cope,gray
cope,thomson
cope,thomson
cope,thomson
cope,thomson
cope,thomson
cope,thomson
cope,thomson
cope,thomson
crew,harrison
crew,harrison
crew,harrison
crew,harrison
harrison,pearson
harrison,pantin
harrison,pantin
belling,harrison
cockerell,harrison
cockerell,harrison
harrison,lotsy
harrison,watson
harrison,watson
harrison,hurst
harrison,hurst
harrison,hurst
harrison,hurst
harrison,thomson
boycott,harrison
harrison,johannsen
harrison,johannsen
belling,crew
crew,punnett
crew,lankester
cockerell,crew
cockerell,crew
crew,pearson
crew,pearson
crew,pearson
crew,pearson
crew,pearson
crew,pearson
crew,pearson
bateson,lock
bateson,bruce
bruce,lankester
bruce,lankester
bruce,lankester
bruce,lankester
bruce,lankester
bruce,lankester
bruce,orton
bruce,orton
bruce,orton
bruce,pearson
bruce,pearson
bruce,pearson
bruce,pearson
bruce,pearson
cockerell,kirby
cockerell,kirby
ewart,punnett
ewart,punnett
bateson,ewart
ewart,watson
castle,harrison
castle,harrison
castle,orton
castle,orton
castle,crew
castle,crew
castle,crew
castle,crew
castle,crew
castle,crew
castle,lankester
castle,lankester
hurst,orton
hurst,orton
cockerell,hurst
cockerell,hurst
cunningham,hurst
hurst,pearson
hurst,pearson
hurst,pearson
boycott,hurst
hurst,punnett
hurst,punnett
hurst,punnett
hurst,punnett
hurst,punnett
hurst,punnett
jordan,yule
jordan,orton
jordan,pearson
jordan,pearson
belling,jordan
belling,jordan
belling,jordan
harmer,jordan
doncaster,punnett
brooks,orton
brooks,cunningham
brooks,cockerell
boycott,brooks
brooks,thomson
bateson,brooks
bateson,brooks
pantin,yule
pantin,yule
pantin,yule
pantin,yule
pantin,yule
pantin,yule
pantin,yule
pantin,yule
pantin,yule
williams,yule
williams,yule
fisher,yule
fisher,yule
darbishire,hurst
darbishire,hurst
darbishire,hurst
darbishire,hurst
bateson,doncaster
bateson,doncaster
bateson,doncaster
bateson,doncaster
bateson,doncaster
bateson,doncaster
bateson,doncaster
bateson,doncaster
bateson,doncaster
bateson,doncaster
bateson,doncaster
bateson,doncaster
bateson,doncaster
bateson,doncaster
bateson,doncaster
cunningham,doncaster
crew,doncaster
doncaster,harrison
doncaster,thompson
bateson,boulenger
bateson,boulenger
bateson,boulenger
bateson,boulenger
bateson,boulenger
bateson,boulenger
bateson,boulenger
bateson,boulenger
boulenger,kammerer
boulenger,kammerer
boulenger,poulton
boulenger,orton
boulenger,orton
boulenger,orton
bernard,orton
bernard,watson
bernard,watson
bateson,bernard
bernard,boycott
boycott,cockerell
cockerell,minchin
cockerell,minchin
cockerell,minchin
harmer,pantin
harmer,yule
harmer,kammerer
bateson,nageli
bateson,nageli
bateson,nageli
cunningham,schuster
schuster,watson
boycott,schuster
bateson,schuster
belling,punnett
belling,pearson
cockerell,curtis
cockerell,curtis
cockerell,curtis
curtis,fisher
curtis,fisher
curtis,lankester
curtis,watson
cunningham,curtis
cockerell,swinhoe
cockerell,swinhoe
cockerell,swinhoe
johannsen,swinhoe
johannsen,swinhoe
cunningham,guyer
cockerell,guyer
cockerell,guyer
cockerell,guyer
cockerell,guyer
cockerell,guyer
guyer,pearson
guyer,pearson
guyer,pearson
guyer,pearson
guyer,pearson
guyer,pearson
guyer,pearson
guyer,pearson
crew,emerson
emerson,poulton
emerson,orton
emerson,orton
emerson,orton
emerson,fisher
emerson,fisher
johannsen,orton
johannsen,orton
bateson,eimer
bateson,eimer
pearson,stelfox
fisher,stelfox
driesch,orton
bateson,correns
bateson,correns
bateson,correns
bateson,correns
bateson,correns
bateson,correns
bateson,correns
bateson,correns
harmer,loeb
loeb,pantin
crew,loeb
bateson,loeb
loeb,thomson
lankester,loeb
loeb,orton
poulton,shull
cockerell,shull
cockerell,shull
cockerell,shull
cockerell,shull
cockerell,shull
orton,shull
davenport,kammerer
davenport,pearson
davenport,pearson
davenport,pearson
bateson,przibram
bateson,przibram
bateson,przibram
bateson,przibram
bateson,przibram
bateson,przibram
bateson,przibram
poulton,przibram
bateson,goldschmidt
bateson,goldschmidt
bateson,goldschmidt
bateson,goldschmidt
crew,snyder
crew,snyder
crew,snyder
pearson,snyder
bateson,vavilov
crew,vavilov
crew,vavilov
bateson,ehle
bateson,ehle
bateson,ehle
bateson,jennings
jennings,pearson
jennings,pearson
bateson,hagedoorn
leahy,pearson
osburn,pearson
pearson,slye
