lankester,pocock
lankester,pocock
lankester,pocock
lankester,pocock
lankester,pocock
lankester,pocock
lankester,pocock
lankester,pocock
lankester,pocock
forbes,lankester
forbes,lankester
forbes,lankester
forbes,lankester
forbes,lankester
forbes,lankester
lankester,romanes
lankester,romanes
lankester,romanes
lankester,romanes
lankester,romanes
lankester,romanes
lankester,romanes
lankester,romanes
lankester,romanes
lankester,romanes
lankester,romanes
lankester,romanes
lankester,romanes
lankester,romanes
lankester,romanes
lankester,romanes
lankester,romanes
lankester,romanes
lankester,romanes
lankester,romanes
lankester,romanes
lankester,romanes
lankester,romanes
lankester,romanes
lankester,romanes
lankester,romanes
lankester,romanes
lankester,romanes
lankester,romanes
lankester,romanes
lankester,romanes
lankester,romanes
lankester,romanes
lankester,romanes
lankester,romanes
lankester,romanes
lankester,romanes
lankester,romanes
lankester,romanes
lankester,romanes
lankester,romanes
lankester,romanes
lankester,romanes
lankester,romanes
lankester,romanes
lankester,romanes
lankester,romanes
lankester,romanes
lankester,romanes
lankester,romanes
lankester,romanes
lankester,romanes
lankester,romanes
lankester,romanes
lankester,romanes
lankester,romanes
lankester,romanes
lankester,romanes
lankester,romanes
lankester,romanes
lankester,romanes
lankester,romanes
lankester,romanes
lankester,romanes
lankester,romanes
lankester,romanes
lankester,romanes
lankester,romanes
lankester,romanes
lankester,romanes
lankester,romanes
lankester,romanes
lankester,romanes
lankester,romanes
lankester,romanes
lankester,romanes
lankester,romanes
lankester,romanes
lankester,romanes
lankester,romanes
lankester,romanes
lankester,romanes
lankester,romanes
lankester,romanes
lankester,romanes
lankester,romanes
lankester,romanes
lankester,romanes
lankester,romanes
lankester,romanes
cunningham,lankester
cunningham,lankester
cunningham,lankester
cunningham,lankester
cunningham,lankester
cunningham,lankester
cunningham,lankester
cunningham,lankester
cunningham,lankester
cunningham,lankester
lankester,thiselton
lankester,thiselton
lankester,thiselton
lankester,thiselton
lankester,thiselton
lankester,thiselton
lankester,thiselton
lankester,thiselton
lankester,thiselton
lankester,thiselton
lankester,thiselton
lankester,thiselton
lankester,thiselton
lankester,thiselton
lankester,thiselton
lankester,thiselton
lankester,thiselton
lankester,thiselton
lankester,thiselton
lankester,thiselton
lankester,thiselton
lankester,thiselton
lankester,thiselton
lankester,thiselton
lankester,thiselton
lankester,thiselton
lankester,thiselton
lankester,thiselton
lankester,thiselton
lankester,thiselton
lankester,thiselton
lankester,thiselton
lankester,thiselton
lankester,thiselton
lankester,thiselton
lankester,thiselton
lankester,thiselton
lankester,thiselton
lankester,thiselton
lankester,thiselton
lankester,poulton
lankester,poulton
lankester,poulton
lankester,poulton
lankester,pearson
lankester,pearson
lankester,pearson
lankester,pearson
lankester,pearson
lankester,pearson
lankester,pearson
lankester,spencer
lankester,spencer
lankester,spencer
lankester,spencer
lankester,spencer
lankester,spencer
lankester,spencer
lankester,spencer
lankester,spencer
lankester,spencer
lankester,spencer
lankester,spencer
lankester,spencer
lankester,spencer
lankester,spencer
lankester,spencer
lankester,spencer
lankester,spencer
lankester,spencer
lankester,spencer
lankester,spencer
lankester,spencer
lankester,spencer
lankester,spencer
lankester,spencer
lankester,spencer
lankester,spencer
lankester,spencer
lankester,spencer
kirby,lankester
kirby,lankester
huxley,lankester
huxley,lankester
huxley,lankester
huxley,lankester
huxley,lankester
huxley,lankester
huxley,lankester
huxley,lankester
huxley,lankester
huxley,lankester
huxley,pocock
huxley,pocock
huxley,pocock
huxley,pocock
distant,huxley
distant,huxley
distant,huxley
huxley,thiselton
huxley,thiselton
huxley,lock
huxley,thomson
huxley,thomson
huxley,thomson
huxley,kirby
huxley,willis
huxley,willis
huxley,romanes
forbes,huxley
romanes,weldon
romanes,weldon
romanes,weldon
romanes,weldon
romanes,weldon
romanes,weldon
romanes,weldon
romanes,weldon
romanes,weldon
romanes,weldon
romanes,weldon
romanes,weldon
distant,romanes
distant,romanes
distant,romanes
distant,romanes
distant,romanes
distant,romanes
distant,romanes
distant,romanes
romanes,sclater
romanes,sclater
henslow,romanes
henslow,romanes
henslow,romanes
henslow,romanes
pearson,romanes
pearson,romanes
pearson,romanes
pearson,romanes
cockerell,romanes
cockerell,romanes
cockerell,romanes
cockerell,romanes
cockerell,romanes
cockerell,romanes
cockerell,romanes
cockerell,romanes
cockerell,romanes
cockerell,romanes
cockerell,romanes
romanes,willis
romanes,willis
poulton,romanes
poulton,romanes
poulton,romanes
poulton,romanes
poulton,romanes
poulton,romanes
forbes,thomson
forbes,thomson
forbes,thomson
forbes,thomson
forbes,thomson
forbes,thomson
forbes,thomson
forbes,thomson
forbes,thomson
forbes,thomson
forbes,thomson
forbes,thomson
forbes,thomson
distant,thomson
distant,thomson
cockerell,thomson
pearson,thomson
pearson,thomson
pearson,thomson
pearson,thomson
pearson,thomson
lock,thomson
lock,thomson
romanes,thomson
romanes,thomson
romanes,thomson
romanes,thomson
lankester,thomson
lankester,thomson
lankester,thomson
lankester,thomson
lankester,thomson
lankester,thomson
lankester,thomson
lankester,thomson
lankester,thomson
thiselton,thomson
thiselton,thomson
thiselton,thomson
thiselton,thomson
thiselton,thomson
thiselton,thomson
henslow,thomson
henslow,thomson
gray,thomson
gray,thomson
gray,thomson
gray,thomson
gray,thomson
gray,thomson
gray,thomson
harmer,thomson
harmer,thomson
sclater,thomson
thomson,weismann
thomson,weismann
cockerell,distant
cockerell,distant
distant,kirby
distant,kirby
distant,pocock
distant,thiselton
distant,thiselton
distant,thiselton
distant,thiselton
distant,pearson
distant,pearson
distant,pearson
distant,pearson
distant,pearson
distant,henslow
distant,lankester
distant,lankester
distant,lankester
distant,sclater
distant,sclater
distant,poulton
distant,poulton
distant,forbes
distant,forbes
distant,forbes
distant,minchin
romanes,spencer
romanes,spencer
romanes,spencer
romanes,spencer
romanes,spencer
romanes,spencer
romanes,spencer
romanes,spencer
romanes,spencer
romanes,spencer
romanes,spencer
romanes,spencer
romanes,spencer
romanes,spencer
romanes,spencer
romanes,spencer
romanes,spencer
pocock,spencer
pocock,spencer
cockerell,spencer
cunningham,spencer
cunningham,spencer
cunningham,spencer
poulton,spencer
henslow,spencer
spencer,thiselton
spencer,thiselton
bateson,weldon
bateson,weldon
bateson,weldon
bateson,weldon
bateson,weldon
bateson,weldon
bateson,weldon
bateson,weldon
bateson,weldon
bateson,weldon
bateson,weldon
bateson,cockerell
bateson,cockerell
bateson,cockerell
bateson,cockerell
bateson,romanes
bateson,romanes
bateson,romanes
bateson,romanes
bateson,poulton
bateson,poulton
bateson,poulton
bateson,poulton
bateson,poulton
bateson,poulton
bateson,poulton
bateson,poulton
bateson,poulton
bateson,poulton
bateson,poulton
bateson,poulton
bateson,poulton
bateson,poulton
bateson,poulton
bateson,poulton
bateson,poulton
bateson,poulton
bateson,poulton
forbes,thiselton
forbes,thiselton
forbes,thiselton
forbes,thiselton
forbes,thiselton
forbes,thiselton
cockerell,thiselton
cockerell,thiselton
cockerell,thiselton
cockerell,thiselton
cockerell,thiselton
thiselton,weldon
thiselton,weldon
thiselton,weldon
thiselton,weldon
henslow,thiselton
henslow,thiselton
henslow,thiselton
harmer,thiselton
huxley,pearson
huxley,pearson
pearson,pocock
pearson,pocock
pearson,thiselton
pearson,thiselton
gray,pearson
gray,pearson
gray,romanes
gray,romanes
gray,thiselton
gray,thiselton
gray,thiselton
gray,thiselton
cockerell,gray
gray,sclater
frankland,gray
gray,lankester
cockerell,cunningham
cunningham,sclater
cunningham,poulton
cunningham,poulton
cunningham,poulton
cockerell,sclater
cockerell,sclater
cockerell,sclater
cockerell,sclater
cockerell,sclater
cockerell,poulton
cockerell,poulton
cockerell,poulton
cockerell,henslow
cockerell,henslow
cockerell,henslow
cockerell,henslow
cockerell,henslow
cockerell,henslow
cockerell,henslow
cockerell,henslow
cockerell,henslow
cockerell,henslow
cockerell,henslow
cockerell,henslow
cockerell,henslow
cockerell,henslow
romanes,weismann
romanes,weismann
romanes,weismann
romanes,weismann
romanes,weismann
romanes,weismann
romanes,weismann
romanes,weismann
romanes,weismann
romanes,weismann
romanes,weismann
romanes,weismann
romanes,weismann
romanes,weismann
romanes,weismann
romanes,weismann
romanes,weismann
romanes,weismann
romanes,weismann
romanes,weismann
romanes,weismann
romanes,weismann
romanes,weismann
romanes,weismann
romanes,weismann
romanes,weismann
romanes,weismann
romanes,weismann
romanes,weismann
romanes,weismann
romanes,weismann
romanes,weismann
romanes,weismann
romanes,weismann
romanes,weismann
romanes,weismann
romanes,weismann
romanes,weismann
romanes,weismann
romanes,weismann
lankester,weismann
lankester,weismann
lankester,weismann
lankester,weismann
lankester,weismann
lankester,weismann
lankester,weismann
lankester,weismann
lankester,weismann
lankester,weismann
lankester,weismann
lankester,weismann
lankester,weismann
lankester,weismann
lankester,weismann
lankester,weismann
lankester,weismann
lankester,weismann
lankester,weismann
lankester,weismann
distant,weismann
distant,weismann
distant,weismann
distant,weismann
distant,weismann
weismann,weldon
cockerell,weismann
sclater,weismann
sclater,weismann
henslow,weismann
spencer,weismann
spencer,weismann
spencer,weismann
spencer,weismann
spencer,weismann
spencer,weismann
pearson,weismann
poulton,weismann
poulton,weismann
poulton,weismann
poulton,weismann
poulton,weismann
poulton,weismann
poulton,weismann
poulton,weismann
poulton,weismann
poulton,weismann
thiselton,weismann
cunningham,weismann
cockerell,forbes
forbes,harmer
forbes,harmer
forbes,harmer
lankester,thomas
lankester,thomas
romanes,thomas
romanes,thomas
sclater,thomas
sclater,thomas
pearson,thomas
pearson,thomas
thiselton,thomas
thiselton,thomas
kirby,thomas
fisher,kirby
fisher,forbes
fisher,spencer
cunningham,fisher
fisher,lankester
morgan,romanes
morgan,romanes
morgan,romanes
morgan,romanes
morgan,romanes
morgan,romanes
morgan,romanes
morgan,pocock
morgan,poulton
morgan,poulton
morgan,poulton
morgan,poulton
lankester,morgan
forbes,morgan
morgan,sclater
cockerell,weldon
cockerell,weldon
lankester,weldon
lankester,weldon
poulton,weldon
poulton,weldon
pocock,poulton
pocock,poulton
henslow,poulton
forbes,wilson
willis,wilson
willis,wilson
harmer,wilson
thiselton,wilson
lankester,wilson
lankester,sclater
lankester,sclater
pocock,sclater
pocock,sclater
pocock,sclater
pocock,sclater
pocock,sclater
pocock,sclater
forbes,sclater
poulton,sclater
guppy,sclater
poulton,williams
forbes,gregory
gregory,kirby
gregory,lankester
romanes,thompson
romanes,thompson
forbes,thompson
gray,thompson
gray,thompson
gray,thompson
gray,thompson
gray,thompson
gray,thompson
gray,thompson
gray,thompson
gray,thompson
gray,thompson
gray,thompson
gray,thompson
gray,thompson
lankester,thompson
lankester,thompson
thiselton,thompson
pearson,vries
pearson,vries
vries,weismann
vries,weismann
pearl,willis
pearl,willis
pearl,willis
pearl,willis
pearl,willis
pearl,willis
pearl,willis
pearl,willis
thiselton,watson
thiselton,watson
thiselton,watson
thiselton,watson
thiselton,watson
cockerell,watson
lloyd,romanes
lloyd,romanes
lloyd,romanes
lloyd,romanes
lloyd,romanes
lloyd,pocock
lloyd,pocock
lloyd,poulton
lloyd,poulton
lloyd,poulton
lloyd,poulton
lloyd,minchin
lloyd,pearson
lloyd,sclater
lloyd,sclater
lloyd,sclater
cope,pocock
cope,lankester
cope,lankester
cope,spencer
cockerell,cope
cope,cunningham
harrison,pearson
harrison,pearson
lock,pearson
kirby,poulton
kirby,poulton
kirby,poulton
ewart,romanes
ewart,gray
castle,sclater
castle,cunningham
castle,lankester
castle,thiselton
castle,forbes
hurst,romanes
hurst,poulton
hurst,lankester
cockerell,jordan
cockerell,jordan
jordan,weismann
frankland,pearson
frankland,thiselton
frankland,thiselton
frankland,lankester
brooks,cockerell
brooks,cockerell
brooks,cockerell
brooks,cockerell
brooks,romanes
brooks,poulton
brooks,lankester
kolliker,lankester
kolliker,lankester
kolliker,lankester
bernard,distant
bernard,romanes
bernard,pearson
bernard,thiselton
bernard,thiselton
bernard,lankester
bernard,lankester
bernard,lankester
bernard,lankester
bernard,lankester
bernard,lankester
huxley,minchin
minchin,romanes
nageli,weismann
pocock,schuster
lankester,schuster
lankester,schuster
lankester,schuster
swinhoe,thiselton
swinhoe,thiselton
poulton,swinhoe
emerson,romanes
emerson,romanes
emerson,romanes
davenport,thiselton
kolliker,weismann
beal,romanes
